<?xml version="1.0" ?>
<glyph format="1" name="four">
  <advance width="1631"/>
  <unicode hex="0034"/>
  <outline>
    <contour>
      <point smooth="yes" type="move" x="1261,46" y="3007"/>
      <point x="1258,26" y="2983,22"/>
      <point x="1249,44" y="2959,2"/>
      <point smooth="yes" type="curve" x="1243,34" y="2936"/>
      <point x="1231,96" y="2892,71"/>
      <point x="1220,46" y="2849,42"/>
      <point smooth="yes" type="curve" x="1209,59" y="2806"/>
      <point x="1205,11" y="2788,12"/>
      <point x="1197,45" y="2769,33"/>
      <point smooth="yes" type="curve" x="1195,48" y="2751"/>
      <point x="1191,62" y="2714,94"/>
      <point x="1195,46" y="2676,3"/>
      <point smooth="yes" type="curve" x="1195,46" y="2640"/>
      <point type="line" x="1195,46" y="2414"/>
      <point type="line" x="1195,46" y="1728"/>
      <point type="line" x="1195,46" y="1357"/>
      <point smooth="yes" type="line" x="1195,46" y="1258"/>
      <point x="1195,46" y="1248,14"/>
      <point x="1199,2" y="1228,46"/>
      <point smooth="yes" type="curve" x="1193,86" y="1220"/>
      <point x="1188,87" y="1212,1"/>
      <point x="1172,61" y="1193,61"/>
      <point smooth="yes" type="curve" x="1163,46" y="1191,32"/>
      <point x="1157,09" y="1189,72"/>
      <point x="1149,01" y="1191"/>
      <point smooth="yes" type="curve" x="1142,46" y="1191"/>
      <point type="line" x="1098,46" y="1191"/>
      <point type="line" x="958,464" y="1191"/>
      <point type="line" x="258,464" y="1191"/>
      <point type="line" x="115,464" y="1191"/>
      <point smooth="yes" type="line" x="71,4639" y="1191"/>
      <point x="64,6143" y="1191"/>
      <point x="56,124" y="1189,65"/>
      <point smooth="yes" type="curve" x="49,4639" y="1191,32"/>
      <point x="44,2041" y="1192,64"/>
      <point x="40,1338" y="1198,33"/>
      <point smooth="yes" type="curve" x="36,4639" y="1202"/>
      <point smooth="yes" type="line" x="10,4639" y="1228"/>
      <point x="7,04395" y="1231,42"/>
      <point x="0,633789" y="1235,84"/>
      <point smooth="yes" type="curve" x="0,0839844" y="1241"/>
      <point x="-0,666016" y="1247,98"/>
      <point x="3,81348" y="1257,28"/>
      <point smooth="yes" type="curve" x="5,58398" y="1264"/>
      <point x="10,1338" y="1281,31"/>
      <point x="14,7441" y="1298,63"/>
      <point smooth="yes" type="curve" x="19,0938" y="1316"/>
      <point x="23,1143" y="1332,1"/>
      <point x="25,4834" y="1352,15"/>
      <point smooth="yes" type="curve" x="32,8936" y="1367"/>
      <point x="39,0439" y="1379,33"/>
      <point x="49,084" y="1390,76"/>
      <point smooth="yes" type="curve" x="57,0439" y="1402"/>
      <point x="70,4443" y="1420,95"/>
      <point x="83,6338" y="1440,05"/>
      <point smooth="yes" type="curve" x="97,0439" y="1459"/>
      <point x="133,764" y="1510,89"/>
      <point x="170,294" y="1562,92"/>
      <point smooth="yes" type="curve" x="206,744" y="1615"/>
      <point x="419,344" y="1918,72"/>
      <point x="633,584" y="2221,28"/>
      <point smooth="yes" type="curve" x="846,184" y="2525"/>
      <point x="879,834" y="2573,07"/>
      <point x="914,034" y="2620,76"/>
      <point smooth="yes" type="curve" x="947,444" y="2669"/>
      <point x="957,654" y="2683,75"/>
      <point x="968,224" y="2698,25"/>
      <point smooth="yes" type="curve" x="978,444" y="2713"/>
      <point x="983,483" y="2720,29"/>
      <point x="988,563" y="2730,88"/>
      <point smooth="yes" type="curve" x="995,644" y="2736,3"/>
      <point x="1001,59" y="2740,85"/>
      <point x="1010,6" y="2742,93"/>
      <point smooth="yes" type="curve" x="1017,46" y="2745,85"/>
      <point x="1034,06" y="2752,92"/>
      <point x="1050,75" y="2759,8"/>
      <point smooth="yes" type="curve" x="1067,46" y="2766,6"/>
      <point x="1086,84" y="2774,5"/>
      <point x="1106,08" y="2782,71"/>
      <point smooth="yes" type="curve" x="1125,46" y="2790,6"/>
      <point x="1130,5" y="2792,66"/>
      <point x="1141,05" y="2799,65"/>
      <point smooth="yes" type="curve" x="1146,46" y="2797,76"/>
      <point x="1152,08" y="2795,8"/>
      <point x="1157,34" y="2788,12"/>
      <point smooth="yes" type="curve" x="1161,46" y="2784"/>
      <point type="line" x="1194,46" y="2751"/>
    </contour>
    <contour>
      <point type="move" x="1194,46" y="1220"/>
      <point x="1202,26" y="1209,16"/>
      <point x="1197,46" y="1184,11"/>
      <point smooth="yes" type="curve" x="1197,46" y="1171"/>
      <point type="line" x="1197,46" y="1042"/>
      <point type="line" x="1197,46" y="550"/>
    </contour>
    <contour>
      <point type="move" x="1198,46" y="1191"/>
      <point type="line" x="1631,46" y="1191"/>
    </contour>
  </outline>
</glyph>