<?xml version="1.0" ?>
<glyph format="1" name="two">
  <advance width="1683"/>
  <unicode hex="0032"/>
  <outline>
    <contour>
      <point smooth="yes" type="move" x="0" y="2337"/>
      <point x="12,5801" y="2381,1"/>
      <point x="30,2695" y="2424,55"/>
      <point smooth="yes" type="curve" x="47,5498" y="2467"/>
      <point x="110,05" y="2620,54"/>
      <point x="200,81" y="2767,65"/>
      <point smooth="yes" type="curve" x="350" y="2849,97"/>
      <point x="417,91" y="2887,45"/>
      <point x="492,55" y="2903,5"/>
      <point smooth="yes" type="curve" x="568" y="2917,61"/>
      <point x="616,63" y="2926,71"/>
      <point x="665,82" y="2933,9"/>
      <point smooth="yes" type="curve" x="715" y="2939,17"/>
      <point x="736,45" y="2941,46"/>
      <point x="760,47" y="2946,89"/>
      <point smooth="yes" type="curve" x="782" y="2944,83"/>
      <point x="971,55" y="2926,71"/>
      <point x="1151,01" y="2821,98"/>
      <point smooth="yes" type="curve" x="1250,07" y="2658"/>
      <point x="1299,74" y="2575,8"/>
      <point x="1327,76" y="2482,29"/>
      <point smooth="yes" type="curve" x="1336,83" y="2387"/>
      <point x="1339,16" y="2362,57"/>
      <point x="1333,06" y="2335,29"/>
      <point smooth="yes" type="curve" x="1330,16" y="2311"/>
      <point x="1324,31" y="2262,18"/>
      <point x="1317,55" y="2213,5"/>
      <point smooth="yes" type="curve" x="1309,41" y="2165"/>
      <point x="1298,87" y="2102,12"/>
      <point x="1285,84" y="2040,42"/>
      <point smooth="yes" type="curve" x="1265,16" y="1980"/>
      <point x="1150,02" y="1643,59"/>
      <point x="894,22" y="1374,76"/>
      <point smooth="yes" type="curve" x="656,91" y="1120"/>
      <point x="560,5" y="1016,5"/>
      <point x="459,73" y="916,89"/>
      <point smooth="yes" type="curve" x="364,83" y="812"/>
      <point x="350,68" y="796,37"/>
      <point x="335,89" y="780,92"/>
      <point smooth="yes" type="curve" x="321" y="766"/>
      <point x="312,62" y="757,6"/>
      <point x="301,06" y="748,28"/>
      <point smooth="yes" type="curve" x="295,09" y="738"/>
      <point x="283,92" y="718,78"/>
      <point x="279,57" y="691,24"/>
      <point smooth="yes" type="curve" x="272,97" y="670"/>
      <point x="268,95" y="657,06"/>
      <point x="259,1" y="639,5"/>
      <point smooth="yes" type="curve" x="259,08" y="626"/>
      <point x="259,06" y="619,03"/>
      <point x="271,42" y="610,58"/>
      <point smooth="yes" type="curve" x="276" y="606"/>
      <point smooth="yes" type="line" x="319" y="563"/>
      <point x="324,04" y="557,96"/>
      <point x="330,58" y="548,3"/>
      <point smooth="yes" type="curve" x="338" y="547,15"/>
      <point x="350,08" y="545,27"/>
      <point x="363,76" y="547"/>
      <point smooth="yes" type="curve" x="376" y="547"/>
      <point type="line" x="454" y="547"/>
      <point type="line" x="695" y="547"/>
      <point type="line" x="1121" y="547"/>
      <point type="line" x="1276" y="547"/>
      <point smooth="yes" type="line" x="1325" y="547"/>
      <point x="1332,61" y="547"/>
      <point x="1341,55" y="545,72"/>
      <point smooth="yes" type="curve" x="1349" y="547,39"/>
      <point x="1363,32" y="550,61"/>
      <point x="1379,22" y="563,35"/>
      <point smooth="yes" type="curve" x="1392" y="570,58"/>
      <point x="1422,93" y="588,05"/>
      <point x="1454,13" y="605,19"/>
      <point smooth="yes" type="curve" x="1482" y="627,45"/>
      <point x="1555,44" y="686,11"/>
      <point x="1601,75" y="773,45"/>
      <point smooth="yes" type="curve" x="1645,31" y="855"/>
      <point x="1657,88" y="878,51"/>
      <point x="1669,09" y="903,28"/>
      <point smooth="yes" type="curve" x="1683" y="926"/>
    </contour>
  </outline>
</glyph>